{
    "page": 1,
    "total_results": 23,
    "total_pages": 2,
    "results": [
        {
            "vote_count": 22,
            "id": 348748,
            "video": false,
            "vote_average": 4.6,
            "title": "미션 이스탄불",
            "popularity": 8.488,
            "poster_path": "\/gEVWw6IIsj0aQHP29Ht1fW2GCQk.jpg",
            "original_language": "de",
            "original_title": "Tschiller: Off Duty",
            "genre_ids": [
                53,
                28,
                35,
                9648
            ],
            "backdrop_path": "\/zgM7m5epMcQreiDh95JBVPCU12R.jpg",
            "adult": false,
            "overview": "임무 수행 중 잔혹한 마피아들의 손에 사랑하는 아내를 잃은 특수요원 ‘닉’.  그러던 어느 날, 하나뿐인 딸 ‘레니’마저 사라지고 만다.  갑자기 사라진 딸의 행방을 조사하던 닉은  그 배후에 다른 음모가 있다는 것을 알아차리고  모든 수단을 총동원해 딸을 찾는 비공식 임무에 돌입한다.  한편, 레니는 닉의 정보원이었던 ‘이드리스’의 도움으로 이스탄불에 도착하지만,  평소 닉에게 원한을 갖고 있던 무자비한 러시아 마피아들의 손에 붙잡히고 만다.  범죄조직에게 딸이 납치된 것을 알게 된 닉은 목숨을 건 추격을 시작하는데…",
            "release_date": "2016-02-04"
        },
        {
            "vote_count": 0,
            "id": 417585,
            "video": false,
            "vote_average": 0,
            "title": "미션: 톱스타를 훔쳐라",
            "popularity": 0.6,
            "poster_path": "\/pl4zvWTkxKaFzBfE56oZQ8qB133.jpg",
            "original_language": "ko",
            "original_title": "미션: 톱스타를 훔쳐라",
            "genre_ids": [],
            "backdrop_path": null,
            "adult": false,
            "overview": "납치 하고 싶은 톱스타 윤빈!  진짜로 납치당했다?!  윤빈은 완벽한 이목구비, 다비드 같은 몸매의 국가대표급 톱스타이다. 매일매일 잘생김을 더해가던 어느 날, 수상한 여자에 의해 납치되고 만다. 얼굴도 이름도 모르는 여자에게 어이없이 납치되고 만 것! 납치범은 윤빈의 기획사 대표 한철호에게 10억 원을 몸값으로 요구하고 그는 폭력배를 동원하고 돈 가방에 GPS를 넣어도 번번이 납치범을 놓치고 만다. 한편, 윤빈의 마약 복용설을 취재 중이던 열혈기자 수진은 다른 사건에 휘말려 윤빈의 납치범에게 잡혀 오게 된다. 과연 윤빈과 수진은 납치범에게서 무사히 빠져나올 수 있을까?",
            "release_date": "2015-09-03"
        },
        {
            "vote_count": 293,
            "id": 460846,
            "video": false,
            "vote_average": 6,
            "title": "스페셜 시큐리티 : 라스트 미션",
            "popularity": 16.513,
            "poster_path": "\/ttME1bjURP32hHENTZ7HxqrLlO1.jpg",
            "original_language": "en",
            "original_title": "Security",
            "genre_ids": [
                28,
                53,
                80
            ],
            "backdrop_path": "\/tTxuPQGhcnxbUamaX4uMkA7onSt.jpg",
            "adult": false,
            "overview": "근무 첫 날부터 전력이 불안하는 등 뭔가의 이상한 낌새가 느껴지는 하루. 그러던 도중 그들이 있는 백화점에 어린 소녀(제이미 - Katherine de la Rocha)가 다급히 나타나고, 에디는 무언가 잘 못 되었다는 것을 눈치챈다. 그리고 잠시 후 제이미를 찾는 찰리(벤 킹슬리)가 나타나면서, 백화점에는 전운이 감돌게 된다.  제이미를 죽이려는 갱들의 공격. 거기에 맞서는 백화점 보안요원들의 목숨을 건 사투. 이 싸움 속에서 제이미의 안전은 무사히 지켜질 수 있을 것인가?",
            "release_date": "2017-03-04"
        },
        {
            "vote_count": 453,
            "id": 11416,
            "video": false,
            "vote_average": 7.3,
            "title": "미션",
            "popularity": 7.995,
            "poster_path": "\/vlUXbsMsxU4xMa7ZTKcl2gpnqlG.jpg",
            "original_language": "en",
            "original_title": "The Mission",
            "genre_ids": [
                12,
                18,
                28,
                36
            ],
            "backdrop_path": "\/22GLW4Qgs7NycHLjsp8whRCuky4.jpg",
            "adult": false,
            "overview": "1750년, 스페인과 포루투갈은 남미 오지에 있는 그들의 영토 경계 문제로 합의를 보았으나 유럽 한구석의 탁자 위에서 그은 선이 얼마나 끔찍한 사태를 불러 일으킬 지 아무도 관심이 없었다. 그곳에서 선교활동을 하던 제수이트 신부들은 과라니족을 감화시켜 근대적인 마을로 발전시키고 교회를 세우는데 성공한다. 신부들 중에 악랄한 노예상이었던 멘도자(로버트 드 니로)는 가브리엘 신부(제레미 아이언스)의 권유로 신부가 되어 헌신적으로 개화에 힘쓰고 있었다. 새로운 영토 분계선에 따라 과라니족의 마을은 포루투갈 식민지로 편입되고, 불응하는 관라니족과 일부 신부들을 설득하려는 추기경이 파견되지만...",
            "release_date": "1986-09-29"
        },
        {
            "vote_count": 59,
            "id": 446038,
            "video": false,
            "vote_average": 5.8,
            "title": "미션 페이즈 바스크",
            "popularity": 6.288,
            "poster_path": "\/smizNL3SsCSohya0wtPVSlIr03Q.jpg",
            "original_language": "fr",
            "original_title": "Mission Pays Basque",
            "genre_ids": [
                35
            ],
            "backdrop_path": "\/uOMEVxng54eOEVnMnokr7npOlKG.jpg",
            "adult": false,
            "overview": "",
            "release_date": "2017-07-12"
        },
        {
            "vote_count": 3939,
            "id": 954,
            "video": false,
            "vote_average": 6.8,
            "title": "미션 임파서블",
            "popularity": 33.359,
            "poster_path": "\/vmj2PzTLC6xJvshpq8SlaYE3gbd.jpg",
            "original_language": "en",
            "original_title": "Mission: Impossible",
            "genre_ids": [
                12,
                28,
                53
            ],
            "backdrop_path": "\/tjQHn6xW5BiB1RJ3OZIPDzIOSkF.jpg",
            "adult": false,
            "overview": "동유럽 첩보원들의 비밀 명단을 훔쳐 무기상에 팔아 넘기려는 음모를 막기 위해 짐 펠프스(존 보이트)가 이끄는 CIA 최고의 팀 미션 임파서블이 투입된다. 그러나 대사관 파티에 잠입하여 동료들과 함께 작전을 수행하던 중 팀의 리더였던 이단 헌트(톰 크루즈)만이 구사일생으로 혼자 살아 남는다. 곧 이어 본부에 연락을 취한 헌트는 이번 작전이 CIA 내에 침투한 이중간첩의 체포작전이라는 것과 자신이 범인으로 지목된 것을 알고 재빨리 피신한다. 그는 자신을 함정에 빠뜨리고 동료들을 살해한 진짜 범인을 찾기 위해 나선다. 마침내 그는 컴퓨터의 접속암호를 풀어 무기 밀매상인 맥스와 연락을 취하는데...",
            "release_date": "1996-05-22"
        },
        {
            "vote_count": 2,
            "id": 363354,
            "video": false,
            "vote_average": 5,
            "title": "도서관 전쟁 : 더 라스트 미션",
            "popularity": 5.017,
            "poster_path": "\/iL3PbqZR3Byy3Z9WArtEsbkkz5C.jpg",
            "original_language": "ja",
            "original_title": "図書館戦争 THE LAST MISSION",
            "genre_ids": [
                10749,
                28,
                35
            ],
            "backdrop_path": "\/v3jtc0py3UTtTGervsoMrAaBYrB.jpg",
            "adult": false,
            "overview": "어느 날 도서대 특수부대의 카오루 일행은 세상에 한 권밖에 존재하지 않는 ‘도서관법규요람’의 일반전시가 열리는 예술 축제 회장에서 경비를 맡는다.  간단한 임무라고 생각했는데 그 명령 뒤에는 도서대를 해산하기 위한 목적을 지닌 테츠카 히카루의 형 사토시의 음모인데 ...",
            "release_date": "2015-10-05"
        },
        {
            "vote_count": 88,
            "id": 348674,
            "video": false,
            "vote_average": 7,
            "title": "어 워 : 라스트 미션",
            "popularity": 7.845,
            "poster_path": "\/1Xh4rhEKPIHs5eLHmZaNjb6E1u9.jpg",
            "original_language": "da",
            "original_title": "Krigen",
            "genre_ids": [
                18,
                10752
            ],
            "backdrop_path": "\/h4LCMwdz5apa7O4mnlldt49GrRo.jpg",
            "adult": false,
            "overview": "아프칸 민간파병 부지휘관 패터슨은 부대원들과 순찰 중 탈레반의 공격을 받게 되고,\r 총알이 빗발치는 상황 속 설상가상으로 동료 부대원은 심각한 총상을 입게된다.  일촉즉발의 상황 속에서 무사히 동료를 구하고 전장을 빠져나오는 데 성공하지만\r 곧 이어 확인되지 않은 지역의 민간인폭격을 지시했다는 혐의로 본국에 의해 고소당하게 되는데...",
            "release_date": "2015-09-10"
        },
        {
            "vote_count": 1614,
            "id": 353081,
            "video": false,
            "vote_average": 7.3,
            "title": "미션 임파서블: 폴아웃",
            "popularity": 101.39,
            "poster_path": "\/tKAlw88sEjU5bntbAfdfWcmRx6S.jpg",
            "original_language": "en",
            "original_title": "Mission: Impossible - Fallout",
            "genre_ids": [
                12,
                28,
                53
            ],
            "backdrop_path": "\/a9fRqsl6P27qxbDSb4pBXNv9Fwl.jpg",
            "adult": false,
            "overview": "에단 헌트(톰 크루즈)는 세계를 위협하는 테러 조직 신디케이트의 수장 솔로몬 레인(숀 해리스)을 우여곡절 끝에 체포했지만, 그의 잔당들은 여전히 세계 각지에서 테러를 일삼는다. 에단 헌트와 그의 팀은 테러조직의 핵무기 소지를 막기 위해 미션에 착수한다. 에단 헌트는 작전 수행 중 예상치 못한 결단을 내리게 되고, 중앙정보국 CIA는 그를 견제하기 위해 상급 요원 어거스트 워커(헨리 카빌)를 파견한다. 최악의 테러 위기와 라이벌의 출현 속, 팀이 행한 모든 선의의 선택들이 최악의 결과로 돌아오면서 미션은 점점 더 예측할 수 없는 상황으로 치닫게 되는데...",
            "release_date": "2018-07-25"
        },
        {
            "vote_count": 483,
            "id": 155084,
            "video": false,
            "vote_average": 6.3,
            "title": "미션 13",
            "popularity": 12.855,
            "poster_path": "\/uYPy89cVgvE1ic0bN39YJrumxwo.jpg",
            "original_language": "en",
            "original_title": "13 Sins",
            "genre_ids": [
                27,
                53
            ],
            "backdrop_path": "\/6yLVPFisDzMuF1cgmQ61e07pWaM.jpg",
            "adult": false,
            "overview": "620만불의 거부할 수 없는 유혹\r 광기의 리얼리티 쇼가 펼쳐진다!\r 보험설계사 엘리엇 브린들은 늘어나는 부채로 어깨가 무겁기만 하다. 그러던 어느 날 미션을 완수할 때마다 거액이 통장에 입금되고 13가지 미션을 모두 완수하면 총 620만 달러를 상금으로 받을 수 있는 특별한 게임쇼의 참가자로 선정되었다는 익명의 전화를 받는다. 전화 속 목소리 지령대로 첫 번째 미션을 완수하자 바로 1,000달러가 입금된 것을 확인한 엘리엇. 미션을 모두 완수하고 게임의 승자가 되기 위해 점점 더 커지는 극한의 공포를 견디며 감시자들의 명령에 따라 미션을 하나씩 수행해나가는데...",
            "release_date": "2014-04-18"
        },
        {
            "vote_count": 39,
            "id": 45871,
            "video": false,
            "vote_average": 7.1,
            "title": "미션",
            "popularity": 2.715,
            "poster_path": "\/h6caee9nexiPgidsuR7ltSnaZYG.jpg",
            "original_language": "cn",
            "original_title": "枪火",
            "genre_ids": [
                28,
                12,
                18,
                878
            ],
            "backdrop_path": "\/ima62dT7yi2nvldjfTgnSMXUWdv.jpg",
            "adult": false,
            "overview": "조직의 보스가 레스토랑에서 정체를 알 수 없는 라이벌에게 습격을 당하는 사건이 발생한다. 도움을 청하는 전화를 받은 보스의 동생 프랭크는 보디가드를 구하기로 한다. 이에 고생해서 얻은 세력기반을 포기한 로이와 신, 이미 은퇴하고 다른 직업을 갖고 있던 커티스와 마이크, 제임스 등이 생명의 위협을 무릎쓰고 보스의 보디가드가 된다. '아이스'라고 불릴만큼 냉정한 커티스, 과묵하고 충성스러운 제임스, 날카롭고 빈틈없는 로이, 매사에 전전긍긍하며 로이에게 의지하는 신, 조용하고 온화한 마이크 등 서로 다른 성격과 배경을 가지고 모인 이들은 남자들끼리의 유대관계를 기폭제로 해서 점차 서로의 진심을 터놓고 대하는 의형제가 된다. 몇 차례 고비를 겪으면서도 보스를 안전하게 보호하고 보스를 습격했던 범인까지 찾아내 임무를 끝마치고 해체를 앞둔 이들에게 뜻밖의 사건이 발생한다.",
            "release_date": "1999-11-19"
        },
        {
            "vote_count": 1491,
            "id": 13387,
            "video": false,
            "vote_average": 6,
            "title": "트랜스포터 : 라스트 미션",
            "popularity": 16.689,
            "poster_path": "\/lDm7PhEzMx35uixohele2F48bXm.jpg",
            "original_language": "en",
            "original_title": "Transporter 3",
            "genre_ids": [
                28,
                12,
                53,
                80
            ],
            "backdrop_path": "\/rgkPGIxOWKSvQjAhn0mLuYvqfLO.jpg",
            "adult": false,
            "overview": "어떤 의뢰품이든 절대 알려 하지 않고 정해진 자신의 룰에 따라 완벽하게 운반하는 전문 ‘트랜스포터’ 프랭크 마틴(제이슨 스테덤). 평화로운 삶을 살아가던 어느 날 담벼락을 뚫고 쳐들어온 아우디 한 대와 피범벅이 된 사나이, 정체 모를 한 여인을 발견한다. 그리고 그들의 손목에 채워진 폭탄팔찌. 차에서 떨어지기를 거부하던 남자를 구급차에 태워보내자 엄청난 굉음과 함께 폭발하고 만다.  불법 환경 사업가로 위장한 존슨(로버트 네퍼)은 프랭크를 납치해 그의 차에서 10m이상 떨어지면 폭 발하는 팔찌를 손목에 장착하고, 목숨을 담보로 한 위험한 거래를 제안한다. 그리고 의문의 한 여인 을 정해진 장소까지 동행하라는 명령을 받게 되는데…  살고 싶다면 스피드를 올려라!!  살기 위해서라면 질주 할 수 밖에 없는 절대 미션, 차에서 떨어지면 폭발해버리는 폭탄, 그리고 자신 을 조종하고 있는 존슨이 프랭크와 동승한 여인을 인질로 전 세계를 위험에 빠트릴 엄청난 계획을 꾸 미고 있음을 알게 된다. 시시각각 조여오는 절체절명의 순간에서 프랭크는 과연 마지막 미션을 성공 할 수 있을 것인가!!",
            "release_date": "2008-11-26"
        },
        {
            "vote_count": 2962,
            "id": 956,
            "video": false,
            "vote_average": 6.6,
            "title": "미션 임파서블 3",
            "popularity": 23.467,
            "poster_path": "\/zRGY17JMtIXokWgigRMbmOANea2.jpg",
            "original_language": "en",
            "original_title": "Mission: Impossible III",
            "genre_ids": [
                12,
                28,
                53
            ],
            "backdrop_path": "\/kOELgNnVt6EGCjtDXx85YUw6p8X.jpg",
            "adult": false,
            "overview": "IMF(Impossible Mission Force) 최고의 베테랑 특수 요원으로서 항상 긴장감 속에 경계를 늦추지 않던 이단 헌트(톰 크루즈). 이제 현장에서 한 발 물러나 특수 요원 트레이닝에 전념하며 삶의 여유를 찾고, 사랑하는 여인 줄리아(미셸 모나한)와 행복한 결혼을 꿈꾼다. 하지만 그녀와의 약혼식 날, 급작스런 본부의 호출을 받은 이단 헌트에게 악명 높은 국제 암거래상 오웬 데비언(필립 세이모어 호프만)에게 인질로 잡혀있는 IMF 요원을 구출하라는 명령이 떨어진다. 약혼녀에게 차마 사실을 알리지 못한 채 작전에 임하는 이단 헌트는 요원을 구출하는 데에 극적으로 성공하지만 그녀는 결국 목숨을 잃고 마는데...",
            "release_date": "2006-05-03"
        },
        {
            "vote_count": 538,
            "id": 2067,
            "video": false,
            "vote_average": 5.8,
            "title": "미션 투 마스",
            "popularity": 7.059,
            "poster_path": "\/vTSeblU2d2m7vZ6LkHkK5Ej1jUZ.jpg",
            "original_language": "en",
            "original_title": "Mission to Mars",
            "genre_ids": [
                18,
                878,
                12
            ],
            "backdrop_path": "\/y97xS60jrTzOmDb2jwB0IP57qig.jpg",
            "adult": false,
            "overview": "서기 2020년. 세계 최초의 우주 비행사들이 화성 착륙에 성공하였다. 그러나 화성 탐사 대원들이 화성에 도착하자마자 작전 사령관 루크 그래함(Luke Graham: 돈 치들 분)과 그의 대원들은 위협에 직면하게 된다. 루크는 악몽이 시작되기 바로 직전, 메시지를 지구에 타진하지만 루크를 제외한 모든 대원들은 형체를 식별할 수 없는 거대한 힘에 의해 공중분해되어 우주 공간으로 사라진다. 인류 최초로 인간이 화성 착륙에 성공하자 NASA는 그 기쁨에 취하기가 무섭게 탐사 대원이 전송한 메시지를 받고 경악을 금치 못한다. NASA는 황급히 화성에서 일어난 비극의 원인을 조사하고 생존자를 구하기 위하여 구조작전에 착수한다.  구조작전 사령관 우디 블레이크(Woodrow 'Woody' Blake: 팀 로빈스 분)와 짐 멕코넬(Jim McConnell: 게리 시나이즈 분)은 동료 대원 닥터 테리 피셔(Terri Fisher: 코니 넬슨 분), 과학자 필 올마이어(Phil Ohlmyer: 제리 오코넬 분)와 팀을 이루어 화성을 향한 6개월간의 대장정에 돌입한다. 그러나 화성 착륙 직전 구조대가 탄 우주 비행선에 기체 결함이 발생한다. 가까스로 본체에서 분리시킨 착륙선에 옮겨타기 위한 과정에서 사령관 우디 블레이크가 대열에서 이탈하게 된다. 누군가가 그를 구조하지 못할 경우 우디는 영영 우주의 미아가 될 운명에 처하고 그의 아내인 닥터 테리 피셔는 남편을 구하기 위해 목숨을 걸지만 두 사람의 목숨이 다 위험하다는 것을 알고 있는 우디는 스스로 자폭하여 아내의 목숨을 구한다.  사령관의 주검을 뒤로 한 채 나머지 대원들은 마침내 화성착륙에 성공한다. 유일한 생존자 루크 그래함과 조우한 구조 대원들은 루크가 촬영한 녹화자료와 음성자료를 분석한다. 이 자료를 통해 대원들은 화성에도 뭔가 정체를 알 수 없는 생명체가 존재하고 있으며, 그 생명체가 자신들에게 의미는 알 수 없지만 특별한 메시지를 보내고 있다는 것을 알아내게 되는데.",
            "release_date": "2000-03-10"
        },
        {
            "vote_count": 2901,
            "id": 955,
            "video": false,
            "vote_average": 6,
            "title": "미션 임파서블 2",
            "popularity": 25.581,
            "poster_path": "\/bnFX4OjXnM9Fe5rdQi0lq6YWuB2.jpg",
            "original_language": "en",
            "original_title": "Mission: Impossible II",
            "genre_ids": [
                12,
                28,
                53
            ],
            "backdrop_path": "\/bDdVZNvxb670EMlZqeIy6RdyJ4V.jpg",
            "adult": false,
            "overview": "러시아 생물공학자 네코비치 박사는 비행기 내에서 이단 헌트(톰 크루즈)로 변장한 앰브로즈(더그레이 스코트)에게 벨레로폰을 탈취당한 후 살해된다. IMF(Impossible Mission Force) 요원 이단 헌트는 네코비치 박사가 테러리스트 앰브로즈에게 탈취당한 것이 무엇인지 알아내기 위해 파견된다. 키메라라는 것이 인플루엔자를 없애기 위한 완벽한 치료제인 벨레로폰을 유전적으로 조합하다 부수적으로 만들어진 악성 바이러스라는 사실을 알아낸 헌트는 임무를 위해 앰브로즈의 전 애인 니아 홀(탠디 뉴톤)을 포섭한다. 헌트는 니아와 사랑에 빠지지만 키메라 바이러스를 파괴하기 위해 니아를 앰브로즈에게 보내는데...",
            "release_date": "2000-05-24"
        },
        {
            "vote_count": 773,
            "id": 2395,
            "video": false,
            "vote_average": 5.1,
            "title": "아스테릭스 : 미션 올림픽게임",
            "popularity": 12.688,
            "poster_path": "\/rPbIBmLvCrO4SmGcAMb3uhbUVUa.jpg",
            "original_language": "fr",
            "original_title": "Astérix aux Jeux Olympiques",
            "genre_ids": [
                14,
                12,
                35,
                10751
            ],
            "backdrop_path": "\/ryjrqoX1ST2tNS18M3KlVdBJnro.jpg",
            "adult": false,
            "overview": "어딘가 2% 부족하지만 훈남 로맨티스트인 ‘러브식스’는 그리스의 ‘이리나’ 공주와 사랑에 빠진다. 하지만 그들의 달콤한 미래를 방해하는 이가 등장했으니, 바로 로마제국의 황제 ‘시저’의 양아들이며 만년 2인자인 찌질이 ‘브루투스’! 거대한 로마 제국의 힘 앞에 그리스의 왕은 어쩔 수 없이 브루투스와 이리나를 정략 결혼시키겠다고 약속해버린 것! 이리나 공주는 그들 앞에 닥친 위기에서 빠져나가기 위해 올림픽 게임의 우승자와 결혼하겠다고 선언한다!  최강로마 브루투스 군단 VS 무한마법 러브식스 골족  브루투스는 막강한 부와 권력으로 심판 매수는 물론 마법사들까지 동원해 마법의 물약으로 강력한 힘과 스피드까지 겸비한 최강의 올림픽 선수단을 구성한다. 그에 비해 가진 거라고는 건강한 신체뿐인 ‘러브식스’는 신비한 힘의 만능해결사 ‘아스테릭스’와 가공할 파워의 천하무적 ‘오벨릭스’에게 도움을 청한다. 이로써 막강 찌질이 브루투스에 맞선 훈남 러브식스의 놀랍고 흥미진진한 상상초월 올림픽 게임이 시작되는데...",
            "release_date": "2008-01-13"
        },
        {
            "vote_count": 1301,
            "id": 2899,
            "video": false,
            "vote_average": 7.3,
            "title": "아스테릭스 2 - 미션 클레오파트라",
            "popularity": 15.312,
            "poster_path": "\/shbL0IZuQ115atqB2gHd5jha6US.jpg",
            "original_language": "fr",
            "original_title": "Astérix & Obélix Mission Cléopâtre",
            "genre_ids": [
                10751,
                14,
                35,
                12
            ],
            "backdrop_path": "\/2g6rIEw3t8ZWzMRlDlgXFr8pAlB.jpg",
            "adult": false,
            "overview": "모든 지역이 로마에 지배받았던 이 시기에, 막강 로마군도 손댈 수 없는 한지역이 있었다. 그곳은 아스테릭스(크리스티앙 클라비에)와 오벨릭스(제라르 드 파르디유)가 살고 있는 골족 마을.힘이 세지는 마법이 물약 제조자 파노라믹스(클로드 리치)와 알고 지내던 누메로비스는 마법의 물약을 청하러 눈내리는 골족 마을로 온다. 마법의 물약을 노동자들에게 먹여 한사람이 열사람의 힘을 내게끔 하려는 계획.  여기에 골족의 영웅 아스테릭스와 오벨릭스, 이데픽스, 파노라믹스가 그들을 도와 이집트의 기적을 만들기 위해 이집트의 뜨거운 햇볕 아래로 여행을 시작한다.  적은 항상 가까운 곳에 있다!  누메로비스를 향한 질투에 사로잡힌 클레오파트라의 공식 건축가 사악한 아몬보피스(제자르 다르몽)와 3개월 안에 정말로 초호화 궁전이 지어질 경우 이집트 민족이 가장 위대한 민족임을 공개적으로 인정해야하는 시저.두 사람의 자존심을 해치는 이 불행한 사건이 일어나지 못하도록 아스테릭스 일행을 피라미드에 가두고, 석포를 이용하여 지어놓은 궁전을 부시는 등 교활할 계책과 강력한 군대로 점점 그들을 궁지로 몰아넣어 가는데….",
            "release_date": "2002-01-29"
        },
        {
            "vote_count": 243,
            "id": 8982,
            "video": false,
            "vote_average": 6.8,
            "title": "옹박 : 두번째 미션",
            "popularity": 9.957,
            "poster_path": "\/7Hq9RGYJAI03AD38eOlr8L9M1mS.jpg",
            "original_language": "th",
            "original_title": "ต้มยำกุ้ง",
            "genre_ids": [
                28,
                80,
                18,
                53
            ],
            "backdrop_path": "\/iHxw595q8u34LKmVkdjn3cB0QVd.jpg",
            "adult": false,
            "overview": "‘자투렁카바트’라고 불리운 근위대 조상을 둔 청년 캄은 과거 선친들이 살던 깊은 산골에서 코끼리를 키우며 살고 있는 평범한 청년이다. 그에겐 포야이와 콘이라는 귀중한 혈통의 코끼리가 있는데 그 중 포야이는 전설로만 내려오던 완벽한 혈통의 코끼리로 캄과 그의 아버지는 포야이를 곧 왕에게 하사할 예정이었다.  그러던 어느 날, 태국의 갱 조직에 의해 코끼리가 도난 당하고 우여곡절 끝에 그 코끼리는 국제 범죄조직에 의해 호주 시드니로 밀매가 되어버린다. 그에게 있어 코끼리는 가족과도 같이 소중한 것이었기에 캄은 부족들의 대표로 코끼리들을 되 찾아 오기 위해 호주로 떠난다.\r 호주에 도착한 캄은 그곳의 경찰관인 마크와 릭을 만나 그들이 조사중인 사건에 도움을 주며 협조를 받게 되고 캄이 상대해야 할 범죄조직이 엄청난 영향력을 행사하고 있는 마피아 조직임을 알게 되는데...\r 마피아들은 태국에서 온 골칫덩어리 캄을 제거하려 악명 높은 킬러들을 보내기 시작한다. 이에 캄은 조상 대대로 전수 받은 고대 무에타이 ‘무에타이보란’을 사용하여 적들에게 조금씩 다가가는데... 그곳엔 상상을 초월하는 강력한 적들에 의한 예상치 못한 위험이 그를 기다리고 있었다.",
            "release_date": "2005-08-11"
        },
        {
            "vote_count": 4480,
            "id": 177677,
            "video": false,
            "vote_average": 7.1,
            "title": "미션 임파서블: 로그네이션",
            "popularity": 36.997,
            "poster_path": "\/gHIH3O5sl2We3itdu4Kv4JN6CNy.jpg",
            "original_language": "en",
            "original_title": "Mission: Impossible - Rogue Nation",
            "genre_ids": [
                28,
                12,
                53
            ],
            "backdrop_path": "\/8XeLfNQrDmFQmPTqxapfWUnKiLf.jpg",
            "adult": false,
            "overview": "미국정부로부터 해체 통보를 받게 된 최첨단 첩보기관 IMF.  에단 헌트를 포함한 팀원들은 모두 뿔뿔이 흩어지게 되고, 정체불명의 테러조직 신디케이트는 IMF 전멸 작전을 펼친다. 신디케이트에게 납치 당한 에단 헌트는 의문의 여인 일사의 도움을 받아 극적 탈출에 성공하고 다시 팀원들을 불러 모은다. 리더 에단 헌트부터 전략 분석요원 브랜트, IT 전문요원 벤지, 해킹 전문요원 루터, 그리고 정체를 알 수 없는 일사까지. 다시 모인 그들은 역대 가장 위협적인 적 신디케이트에 맞서는 불가능한 미션을 펼친다.",
            "release_date": "2015-07-23"
        },
        {
            "vote_count": 5259,
            "id": 56292,
            "video": false,
            "vote_average": 6.9,
            "title": "미션 임파서블: 고스트 프로토콜",
            "popularity": 25.693,
            "poster_path": "\/y0aoNnDBYCc6tgCt8ZGlzaqox7Y.jpg",
            "original_language": "en",
            "original_title": "Mission: Impossible - Ghost Protocol",
            "genre_ids": [
                28,
                53,
                12
            ],
            "backdrop_path": "\/pc7a2qrIkIxzqWGqcexd3mHzIxy.jpg",
            "adult": false,
            "overview": "러시아 크렘린 궁 폭발 테러 사건에 연루되며 사상 초유의 존립 위기를 맞게 된 IMF(Impossible Mission Force). 국가적 분쟁을 피하기 위해 미 정부는 IMF 조직에 대해 고스트 프로토콜을 발동하고, 조직의 과거도 정체도 모두 지워버린다. 순식간에 국제 테러리스트가 되어 버린 특수 비밀요원 이단 헌트(톰 크루즈)는 자신과 조직의 명예를 되찾기 위해 지상 최대의 불가능한 미션을 다시 시작한다. 누구도 좀처럼 믿지 않는 그이지만, 이번만큼은 현재 의지할 수 있는 유일한 동료 세 명과 함께 새로운 팀을 이뤄 임무에 나선다. 그들의 임무는 소련과 미국을 이간질해 핵전쟁을 일으키려는 매드사이언티스트를 막는 것인데...",
            "release_date": "2011-12-07"
        }
    ]
}